Read MBR4.0 data combining latest and archived data — read_mbr4 • kwb.pilot
…
#> Warning: Removing 2836 duplicates:
#> # A tibble: 2,836 × 79
#>    h_grob h_bel h_filt q_filt p_filt q_sg1 q_sg2 q_nitri  q_zp  q_rp q_filtrat2
#>     <dbl> <dbl>  <dbl>  <dbl>  <dbl> <dbl> <dbl>   <dbl> <dbl> <dbl>      <dbl>
#>  1   73.5  61.1   86.6   147.  -33.5  10.7  11.5    0       0  3070.       115.
#>  2   64.7  61.0   86.6   147.  -33.5  10.7  11.6    0       0  3019.       129.
#>  3   63.8  60.6   86.7   146.  -33.7  10.7  11.6    0       0  3048.       128.
#>  4   63.7  60.6   86.6   146.  -34.1  10.7  11.5    2.67    0  3064.       115.
#>  5   63.6  60.4   86.6   146.  -34.1  10.7  11.6    2.65    0  3007.       117.
#>  6   78.6  61.4   86.7     0    11.7  10.7  11.6    0    6340. 3080.         0 
#>  7   74.6  65.4   86.8     0    12.8  10.7  11.6    0       0  3046.         0 
#>  8   67.0  65.3   86.6   148.  -34.1  10.7  11.5    0       0  3048.       114.
#>  9   65.3  65.2   86.6   146.  -34.1  10.8  11.5    2.66    0  3091.       115.
#> 10   65.3  64.8   86.6   148.  -34.2  10.7  11.5    2.65    0  2736.       119.
#> # … with 2,826 more rows, and 68 more variables: p_filtrat2 <dbl>, p_sg1 <dbl>,
#> #   p_sg2 <dbl>, ldo_nitri <dbl>, ldo_nitri_temp <dbl>, ldo_filter <dbl>,
#> #   ldo_filter_temp <dbl>, redox_deni <dbl>, redox_deni_temp <dbl>,
#> #   ts_filter <dbl>, ts_nitri <dbl>, ammonium_ablauf <dbl>,
#> #   nitrat_ablauf <dbl>, kalium_ablauf <dbl>, chlorid_ablauf <dbl>,
#> #   temp_ablauf <dbl>, ammonium_nitri <dbl>, kalium_nitri <dbl>,
#> #   temp_nitri <dbl>, ammonium_zulauf <dbl>, kalium_zulauf <dbl>, …
…
