Pilot: MBR 4.0 • kwb.pilot
…
#> Warning in remove_duplicates(.): Removing 2836 duplicates:
#> # A tibble: 2,836 × 79
#>    h_grob h_bel h_filt q_filt p_filt q_sg1 q_sg2 q_nitri  q_zp  q_rp q_filtrat2
#>     <dbl> <dbl>  <dbl>  <dbl>  <dbl> <dbl> <dbl>   <dbl> <dbl> <dbl>      <dbl>
#>  1   73.5  61.1   86.6   147.  -33.5  10.7  11.5    0       0  3070.       115.
#>  2   64.7  61.0   86.6   147.  -33.5  10.7  11.6    0       0  3019.       129.
#>  3   63.8  60.6   86.7   146.  -33.7  10.7  11.6    0       0  3048.       128.
#>  4   63.7  60.6   86.6   146.  -34.1  10.7  11.5    2.67    0  3064.       115.
#>  5   63.6  60.4   86.6   146.  -34.1  10.7  11.6    2.65    0  3007.       117.
#>  6   78.6  61.4   86.7     0    11.7  10.7  11.6    0    6340. 3080.         0 
#>  7   74.6  65.4   86.8     0    12.8  10.7  11.6    0       0  3046.         0 
#>  8   67.0  65.3   86.6   148.  -34.1  10.7  11.5    0       0  3048.       114.
#>  9   65.3  65.2   86.6   146.  -34.1  10.8  11.5    2.66    0  3091.       115.
#> 10   65.3  64.8   86.6   148.  -34.2  10.7  11.5    2.65    0  2736.       119.
#> # … with 2,826 more rows, and 68 more variables: p_filtrat2 <dbl>, p_sg1 <dbl>,
#> #   p_sg2 <dbl>, ldo_nitri <dbl>, ldo_nitri_temp <dbl>, ldo_filter <dbl>,
#> #   ldo_filter_temp <dbl>, redox_deni <dbl>, redox_deni_temp <dbl>,
#> #   ts_filter <dbl>, ts_nitri <dbl>, ammonium_ablauf <dbl>,
#> #   nitrat_ablauf <dbl>, kalium_ablauf <dbl>, chlorid_ablauf <dbl>,
#> #   temp_ablauf <dbl>, ammonium_nitri <dbl>, kalium_nitri <dbl>,
#> #   temp_nitri <dbl>, ammonium_zulauf <dbl>, kalium_zulauf <dbl>, …
…
#> Warning in remove_duplicates(.): Removing 5734 duplicates:
#> # A tibble: 5,734 × 76
#>    h_grob h_bel h_filt q_filt p_filt q_sg1 q_sg2 q_nitri  q_zp  q_rp q_filtrat2
#>     <dbl> <dbl>  <dbl>  <dbl>  <dbl> <dbl> <dbl>   <dbl> <dbl> <dbl>      <dbl>
#>  1   63.6  60.9   86.6   149.  -35.0  10.7  11.6    1.45    0  2977.       140.
#>  2   63.6  60.7   86.6   148.  -34.7  10.7  11.6    1.32    0  3045.       128.
#>  3   63.6  60.5   86.6   147.  -34.7  10.7  11.6    0       0  3046.       137.
#>  4   78.2  61.2   86.6   147.  -34.9  10.7  11.6    1.55 6394. 3010.       127.
#>  5   79.5  64.7   86.6     0    10.2  10.8  11.6    1.31 6352. 3034.         0 
#>  6   74.5  65.3   86.7     0    12.2  10.7  11.6    2.32    0  2908.         0 
#>  7   74.5  65.2   86.6   148.  -34.5  10.8  11.6    2.55    0  3071.       140.
#>  8   74.5  65.0   86.6   148.  -34.7  10.8  11.6    2.65    0  3054.       127.
#>  9   76.9  64.8   86.6   148.  -34.8  10.8  11.6    2.65    0  3045.       137.
#> 10   69.8  65.2   86.6   148.  -35.2  10.7  11.6    2.62    0  3041.       134.
#> # … with 5,724 more rows, and 65 more variables: p_filtrat2 <dbl>, p_sg1 <dbl>,
#> #   p_sg2 <dbl>, ldo_nitri <dbl>, ldo_nitri_temp <dbl>, ldo_filter <dbl>,
#> #   ldo_filter_temp <dbl>, redox_deni <dbl>, redox_deni_temp <dbl>,
#> #   ts_filter <dbl>, ts_nitri <dbl>, ammonium_ablauf <dbl>,
#> #   nitrat_ablauf <dbl>, kalium_ablauf <dbl>, chlorid_ablauf <dbl>,
#> #   temp_ablauf <dbl>, ammonium_nitri <dbl>, kalium_nitri <dbl>,
#> #   temp_nitri <dbl>, ammonium_zulauf <dbl>, kalium_zulauf <dbl>, …
…
